# File produced by Open Asset Import Library (http://www.assimp.sf.net)
# (assimp v4.1.3154142419)

mtllib buffer.mtl

# 640 vertex positions
v  -578.961181640625 294.0018920898438 1057.220458984375
v  -580.9612426757812 291.5115356445312 1058.561401367188
v  -566.9613037109375 291.5113525390625 1058.561645507812
v  -550.9616088867188 260.9533386230469 1049.394653320312
v  -568.9612426757812 294.0016784667969 1057.220703125
v  -566.9605712890625 347.0652770996094 1075.22802734375
v  -578.9606323242188 345.7244567871094 1072.737426757812
v  -592.9614868164062 270.4395751953125 1052.239624023438
v  -592.9605712890625 347.065673828125 1075.227661132812
v  -580.9605712890625 347.0653991699219 1075.227905273438
v  -578.9609985351562 296.8753662109375 1047.642211914062
v  -578.9603881835938 348.5979309082031 1063.1591796875
v  -568.9606323242188 345.7243041992188 1072.737548828125
v  -568.9609985351562 296.8750610351562 1047.642456054688
v  -550.9605102539062 359.0376892089844 1078.820068359375
v  -549.9615478515625 260.9955444335938 1048.363159179688
v  -948.9606323242188 359.0440368652344 1078.814697265625
v  -948.9606323242188 360.0019836425781 1078.102172851562
v  -550.9603881835938 359.9955444335938 1078.107299804688
v  -549.96044921875 358.9955749511719 1077.763305664062
v  -932.9617309570312 270.4450378417969 1052.235229492188
v  -948.9619750976562 260.9597473144531 1049.389282226562
v  -550.9616088867188 259.9955139160156 1048.107177734375
v  -802.961669921875 270.4429626464844 1052.236938476562
v  -722.9615478515625 270.441650390625 1052.238037109375
v  -672.9615478515625 270.4408569335938 1052.238525390625
v  -852.961669921875 270.4437255859375 1052.236206054688
v  -949.9619750976562 261.0020141601562 1048.35791015625
v  -948.9617919921875 260.001953125 1048.101928710938
v  -710.960693359375 347.0674743652344 1075.226196289062
v  -696.9606323242188 347.0672912597656 1075.226196289062
v  -672.9606323242188 347.0668640136719 1075.2265625
v  -722.960693359375 347.0676574707031 1075.225952148438
v  -802.960693359375 347.0689086914062 1075.224853515625
v  -826.9608154296875 347.0693359375 1075.224487304688
v  -932.9607543945312 347.0709838867188 1075.223266601562
v  -852.9608154296875 347.0698547363281 1075.224243164062
v  -840.9608154296875 347.0695495605469 1075.224365234375
v  -949.9606323242188 359.0018615722656 1077.758056640625
v  -696.9613037109375 291.5133666992188 1058.56005859375
v  -698.9613037109375 294.0037536621094 1057.218994140625
v  -710.9613647460938 291.5136108398438 1058.559814453125
v  -708.9613037109375 294.0037841796875 1057.218872070312
v  -698.9606323242188 345.7263793945312 1072.73583984375
v  -708.9606323242188 345.7265625 1072.735717773438
v  -724.9615478515625 272.9320678710938 1050.896850585938
v  -800.9614868164062 272.9331665039062 1050.895874023438
v  -724.9607543945312 345.726806640625 1072.735595703125
v  -800.960693359375 345.7279663085938 1072.734497070312
v  -840.96142578125 291.5156555175781 1058.557983398438
v  -826.96142578125 291.5154113769531 1058.558227539062
v  -854.9616088867188 272.9340209960938 1050.895263671875
v  -930.9616088867188 272.9352111816406 1050.894287109375
v  -854.960693359375 345.7288818359375 1072.733764648438
v  -930.9607543945312 345.7301940917969 1072.73291015625
v  -828.9613647460938 294.0057373046875 1057.21728515625
v  -838.9613647460938 294.0059204101562 1057.217163085938
v  -828.9607543945312 345.7283935546875 1072.734130859375
v  -838.9607543945312 345.7285766601562 1072.734008789062
v  -594.96142578125 272.9298400878906 1050.898681640625
v  -670.9614868164062 272.9310302734375 1050.897583007812
v  -594.9606323242188 345.7247619628906 1072.7373046875
v  -670.960693359375 345.7259521484375 1072.736206054688
v  -948.9600219726562 360.0021057128906 1029.102172851562
v  -549.9597778320312 358.9956359863281 1030.107543945312
v  -550.9597778320312 359.9957275390625 1029.107421875
v  -549.96044921875 355.9955749511719 1072.687377929688
v  -549.9613037109375 260.9955749511719 1030.107299804688
v  -948.9616088867188 261.001953125 1029.101928710938
v  -550.9613037109375 260.9956359863281 1029.107177734375
v  -549.9613037109375 263.9955139160156 1033.107299804688
v  -549.9598999023438 355.9957275390625 1033.107543945312
v  -949.9600219726562 359.0020446777344 1030.102172851562
v  -949.9600830078125 356.0020446777344 1033.10205078125
v  -949.9618530273438 264.001953125 1046.125732421875
v  -949.960693359375 356.0020446777344 1073.72607421875
v  -949.961669921875 261.001953125 1030.10205078125
v  -949.9615478515625 264.001953125 1033.101928710938
v  -948.961669921875 260.0020141601562 1030.101928710938
v  -948.9601440429688 354.0021057128906 1034.102172851562
v  -948.9606323242188 355.0019836425781 1072.381958007812
v  -948.960205078125 355.0021057128906 1035.102172851562
v  -948.961669921875 265.0020141601562 1034.101928710938
v  -948.9617309570312 265.001953125 1045.3818359375
v  -550.9613647460938 259.9956665039062 1030.107299804688
v  -549.9615478515625 263.9955139160156 1045.087158203125
v  -550.9613647460938 264.9956359863281 1034.107177734375
v  -550.9614868164062 264.9957275390625 1045.387084960938
v  -550.9599609375 354.9957275390625 1035.107421875
v  -550.9599609375 353.9956665039062 1034.107299804688
v  -550.96044921875 354.9956359863281 1072.387329101562
v  -933.9607543945312 349.4656677246094 1070.721435546875
v  -591.96142578125 270.9183044433594 1047.163208007812
v  -673.9615478515625 270.9197082519531 1047.162231445312
v  -721.9614868164062 270.9205017089844 1047.161499023438
v  -803.9615478515625 270.9218139648438 1047.160400390625
v  -851.9616088867188 270.9224853515625 1047.159790039062
v  -933.9616088867188 270.9238586425781 1047.158569335938
v  -565.961181640625 291.990234375 1053.485229492188
v  -565.96044921875 349.4598388671875 1070.726318359375
v  -581.96044921875 349.4599609375 1070.72607421875
v  -591.9605712890625 349.4601745605469 1070.725952148438
v  -695.9605102539062 349.4617309570312 1070.724609375
v  -711.9605712890625 349.4621887207031 1070.724243164062
v  -721.9605712890625 349.4622192382812 1070.72412109375
v  -673.9605712890625 349.4614868164062 1070.724853515625
v  -803.9606323242188 349.4636535644531 1070.723022460938
v  -825.9606323242188 349.4639892578125 1070.722778320312
v  -841.960693359375 349.4641418457031 1070.722534179688
v  -851.960693359375 349.4644165039062 1070.722412109375
v  -581.9603271484375 352.3334655761719 1061.147827148438
v  -581.9612426757812 291.9905090332031 1053.484985351562
v  -581.9609985351562 294.8638916015625 1043.906860351562
v  -565.9603271484375 352.333251953125 1061.14794921875
v  -565.9609985351562 294.8636474609375 1043.906982421875
v  -711.96044921875 352.3355102539062 1061.14599609375
v  -711.9612426757812 291.9924926757812 1053.483276367188
v  -711.9611206054688 294.8660278320312 1043.905029296875
v  -695.9612426757812 291.9923706054688 1053.483642578125
v  -695.9603881835938 352.3354187011719 1061.146118164062
v  -695.9611206054688 294.86572265625 1043.9052734375
v  -591.9612426757812 273.7919006347656 1037.5849609375
v  -591.96044921875 352.3336791992188 1061.147583007812
v  -673.9613037109375 273.793212890625 1037.583862304688
v  -673.96044921875 352.3349914550781 1061.146484375
v  -721.9613647460938 273.7940063476562 1037.583251953125
v  -721.96044921875 352.335693359375 1061.145874023438
v  -825.96142578125 291.9943237304688 1053.481811523438
v  -803.96142578125 273.7953796386719 1037.582153320312
v  -803.96044921875 352.3370666503906 1061.144775390625
v  -841.96044921875 352.3376159667969 1061.144287109375
v  -841.9613647460938 291.9945678710938 1053.4814453125
v  -841.9611206054688 294.8681030273438 1043.903198242188
v  -825.9605102539062 352.3374938964844 1061.14453125
v  -825.961181640625 294.8678588867188 1043.903564453125
v  -851.96142578125 273.7960815429688 1037.581420898438
v  -851.9605102539062 352.3378295898438 1061.144287109375
v  -933.96142578125 273.7973937988281 1037.580200195312
v  -933.9605712890625 352.3390808105469 1061.14306640625
v  -698.9610595703125 296.8772583007812 1047.640625
v  -708.9605102539062 348.6000366210938 1063.157470703125
v  -708.9611206054688 296.8774108886719 1047.640625
v  -698.9605712890625 348.599853515625 1063.15771484375
v  -800.96142578125 275.8066101074219 1041.317749023438
v  -800.9605712890625 348.6015319824219 1063.156372070312
v  -724.96142578125 275.8054809570312 1041.318603515625
v  -724.9605102539062 348.6002807617188 1063.157348632812
v  -930.9614868164062 275.8088073730469 1041.31591796875
v  -930.9605712890625 348.6036071777344 1063.154541015625
v  -854.96142578125 275.8075561523438 1041.31689453125
v  -854.9605712890625 348.602294921875 1063.155517578125
v  -828.961181640625 296.8792419433594 1047.638916015625
v  -838.9605102539062 348.60205078125 1063.15576171875
v  -838.9612426757812 296.8794555664062 1047.638916015625
v  -828.9605102539062 348.6019287109375 1063.155883789062
v  -670.9613037109375 275.8046264648438 1041.3193359375
v  -670.9605102539062 348.5993957519531 1063.158081054688
v  -594.9613037109375 275.8033447265625 1041.320434570312
v  -594.9603881835938 348.5982360839844 1063.158935546875
v  -568.96044921875 348.5977783203125 1063.159301757812
v  -578.9592895507812 414.0018310546875 1057.220825195312
v  -580.9593505859375 411.5115356445312 1058.561645507812
v  -566.9593505859375 411.5114135742188 1058.56201171875
v  -550.959716796875 380.9535827636719 1049.394897460938
v  -568.9592895507812 414.001708984375 1057.220947265625
v  -566.9586791992188 467.0652465820312 1075.228271484375
v  -578.958740234375 465.7244567871094 1072.737670898438
v  -592.9595947265625 390.4396362304688 1052.239868164062
v  -592.9586791992188 467.0657348632812 1075.227905273438
v  -580.9586791992188 467.0655212402344 1075.228149414062
v  -578.9591064453125 416.87548828125 1047.642578125
v  -578.9584350585938 468.5979919433594 1063.159423828125
v  -568.9586791992188 465.7243957519531 1072.73779296875
v  -568.9590454101562 416.875244140625 1047.642700195312
v  -550.95849609375 479.0379333496094 1078.820190429688
v  -549.959716796875 380.9956359863281 1048.363403320312
v  -948.958740234375 479.0442199707031 1078.815063476562
v  -948.9588012695312 480.0020751953125 1078.102294921875
v  -550.95849609375 479.995849609375 1078.107666015625
v  -549.9585571289062 478.9955749511719 1077.763671875
v  -932.9597778320312 390.445068359375 1052.2353515625
v  -948.9599609375 380.9599304199219 1049.389526367188
v  -550.959716796875 379.9957580566406 1048.107421875
v  -802.959716796875 390.4429016113281 1052.237060546875
v  -722.9596557617188 390.4417114257812 1052.238159179688
v  -672.9596557617188 390.4408264160156 1052.23876953125
v  -852.9597778320312 390.4437866210938 1052.236450195312
v  -949.9599609375 381.0020141601562 1048.358154296875
v  -948.9598999023438 380.0021057128906 1048.102294921875
v  -710.958740234375 467.0675964355469 1075.226318359375
v  -696.9588012695312 467.0674133300781 1075.2265625
v  -672.958740234375 467.0669860839844 1075.226806640625
v  -722.9588012695312 467.0677490234375 1075.226196289062
v  -802.9588623046875 467.0690307617188 1075.225219726562
v  -826.9588012695312 467.0694274902344 1075.224853515625
v  -932.9588623046875 467.0711364746094 1075.223388671875
v  -852.9589233398438 467.0698547363281 1075.224365234375
v  -840.9589233398438 467.0697021484375 1075.224487304688
v  -949.9588012695312 479.001953125 1077.75830078125
v  -696.9594116210938 411.5134887695312 1058.560302734375
v  -698.9593505859375 414.0037231445312 1057.21923828125
v  -710.9594116210938 411.5136413574219 1058.56005859375
v  -708.9593505859375 414.0039978027344 1057.218994140625
v  -698.958740234375 465.7265014648438 1072.736083984375
v  -708.958740234375 465.7265625 1072.736083984375
v  -724.9595947265625 392.9319458007812 1050.897094726562
v  -800.959716796875 392.9332580566406 1050.896118164062
v  -724.958740234375 465.7267456054688 1072.73583984375
v  -800.9588623046875 465.7281188964844 1072.734741210938
v  -840.95947265625 411.5157470703125 1058.558227539062
v  -826.95947265625 411.5155029296875 1058.558471679688
v  -854.9596557617188 392.9341430664062 1050.8955078125
v  -930.9598388671875 392.935302734375 1050.89453125
v  -854.9588623046875 465.7288818359375 1072.734008789062
v  -930.958984375 465.7300720214844 1072.733032226562
v  -828.9593505859375 414.0059204101562 1057.217529296875
v  -838.9593505859375 414.0060424804688 1057.217407226562
v  -828.958740234375 465.7286071777344 1072.734375
v  -838.9588623046875 465.7286071777344 1072.734252929688
v  -594.9595947265625 392.9299621582031 1050.89892578125
v  -670.9595947265625 392.93115234375 1050.897827148438
v  -594.9586791992188 465.724853515625 1072.737426757812
v  -670.9586181640625 465.7259826660156 1072.736450195312
v  -948.9580688476562 480.0021667480469 1029.102294921875
v  -549.9578857421875 478.9956359863281 1030.107788085938
v  -550.9578857421875 479.9957885742188 1029.107666015625
v  -549.95849609375 475.9956970214844 1072.6875
v  -549.9594116210938 380.9956970214844 1030.107543945312
v  -948.959716796875 381.002197265625 1029.102172851562
v  -550.95947265625 380.9958190917969 1029.107543945312
v  -549.9594116210938 383.9957275390625 1033.107543945312
v  -549.9579467773438 475.9958190917969 1033.107666015625
v  -949.9581909179688 479.0021057128906 1030.102416992188
v  -949.9583129882812 476.0021057128906 1033.102416992188
v  -949.9600219726562 384.0019836425781 1046.126098632812
v  -949.958740234375 476.0020446777344 1073.726196289062
v  -949.959716796875 381.0020751953125 1030.102294921875
v  -949.9597778320312 384.0019836425781 1033.10205078125
v  -948.9597778320312 380.0020751953125 1030.102172851562
v  -948.958251953125 474.0022277832031 1034.102416992188
v  -948.958740234375 475.0021667480469 1072.38232421875
v  -948.958251953125 475.0021667480469 1035.1025390625
v  -948.9596557617188 385.0020446777344 1034.102172851562
v  -948.9598388671875 385.0020446777344 1045.382080078125
v  -550.95947265625 379.9956970214844 1030.107543945312
v  -549.9595947265625 383.9956970214844 1045.087280273438
v  -550.9594116210938 384.9956970214844 1034.107543945312
v  -550.9595336914062 384.9957885742188 1045.38720703125
v  -550.9581298828125 474.9957275390625 1035.107666015625
v  -550.9580078125 473.995849609375 1034.107666015625
v  -550.95849609375 474.9957580566406 1072.387451171875
v  -933.958740234375 469.4657287597656 1070.7216796875
v  -591.9595336914062 390.9184875488281 1047.163452148438
v  -673.9595336914062 390.9197692871094 1047.162353515625
v  -721.9595947265625 390.9205322265625 1047.161743164062
v  -803.959716796875 390.9219055175781 1047.16064453125
v  -851.959716796875 390.9226684570312 1047.159912109375
v  -933.959716796875 390.9239196777344 1047.158813476562
v  -565.9592895507812 411.990234375 1053.485473632812
v  -565.9585571289062 469.4598999023438 1070.7265625
v  -581.9586181640625 469.4599304199219 1070.726318359375
v  -591.9585571289062 469.4602355957031 1070.726196289062
v  -695.9586181640625 469.4618530273438 1070.724731445312
v  -711.9586791992188 469.4623107910156 1070.724487304688
v  -721.9586791992188 469.4623107910156 1070.724365234375
v  -673.9586791992188 469.461669921875 1070.72509765625
v  -803.958740234375 469.4635925292969 1070.723266601562
v  -825.958740234375 469.4639892578125 1070.723022460938
v  -841.958740234375 469.4642639160156 1070.722778320312
v  -851.958740234375 469.4644165039062 1070.722534179688
v  -581.9583740234375 472.3334655761719 1061.148071289062
v  -581.959228515625 411.990478515625 1053.485229492188
v  -581.9590454101562 414.8640747070312 1043.906982421875
v  -565.9583740234375 472.3333435058594 1061.148193359375
v  -565.9591064453125 414.8638305664062 1043.9072265625
v  -711.95849609375 472.3356323242188 1061.146240234375
v  -711.9593505859375 411.9925537109375 1053.483642578125
v  -711.9591064453125 414.8661499023438 1043.9052734375
v  -695.9593505859375 411.9922485351562 1053.48388671875
v  -695.95849609375 472.33544921875 1061.146484375
v  -695.959228515625 414.8658447265625 1043.905517578125
v  -591.9593505859375 393.7919616699219 1037.585083007812
v  -591.9583740234375 472.3337097167969 1061.14794921875
v  -673.9593505859375 393.7933044433594 1037.584106445312
v  -673.95849609375 472.3351135253906 1061.146728515625
v  -721.95947265625 393.7940673828125 1037.58349609375
v  -721.95849609375 472.3357849121094 1061.146240234375
v  -825.9594116210938 411.9944763183594 1053.482055664062
v  -803.95947265625 393.7953796386719 1037.582397460938
v  -803.9585571289062 472.3370056152344 1061.14501953125
v  -841.9585571289062 472.3376159667969 1061.14453125
v  -841.9593505859375 411.99462890625 1053.481811523438
v  -841.959228515625 414.8681640625 1043.903442382812
v  -825.9586181640625 472.3374938964844 1061.144775390625
v  -825.959228515625 414.8680114746094 1043.903686523438
v  -851.95947265625 393.7961730957031 1037.581665039062
v  -851.9586181640625 472.337890625 1061.14453125
v  -933.9595947265625 393.7975158691406 1037.58056640625
v  -933.9586181640625 472.3392028808594 1061.143310546875
v  -698.959228515625 416.8773803710938 1047.64111328125
v  -708.95849609375 468.6001586914062 1063.15771484375
v  -708.959228515625 416.8775024414062 1047.640747070312
v  -698.95849609375 468.5999145507812 1063.157836914062
v  -800.9595336914062 395.8066711425781 1041.31787109375
v  -800.9585571289062 468.6015319824219 1063.156494140625
v  -724.95947265625 395.8055419921875 1041.31884765625
v  -724.9585571289062 468.6002197265625 1063.157592773438
v  -930.9595336914062 395.8088684082031 1041.316162109375
v  -930.9586791992188 468.6037292480469 1063.15478515625
v  -854.95947265625 395.8076171875 1041.317260742188
v  -854.9586791992188 468.6023864746094 1063.15576171875
v  -828.9593505859375 416.8793640136719 1047.639282226562
v  -838.9586181640625 468.6021728515625 1063.156005859375
v  -838.9593505859375 416.8794860839844 1047.63916015625
v  -828.9586181640625 468.6020812988281 1063.156127929688
v  -670.9594116210938 395.8047485351562 1041.319580078125
v  -670.95849609375 468.5994567871094 1063.158203125
v  -594.9593505859375 395.803466796875 1041.320678710938
v  -594.9585571289062 468.5982971191406 1063.1591796875
v  -568.9584350585938 468.5977783203125 1063.159545898438
v  -578.9650268554688 54.00168991088867 1057.220092773438
v  -580.965087890625 51.51140594482422 1058.56103515625
v  -566.965087890625 51.51121139526367 1058.561157226562
v  -550.9654541015625 20.95329666137695 1049.394165039062
v  -568.9650268554688 54.00148010253906 1057.22021484375
v  -566.9644775390625 107.0650405883789 1075.2275390625
v  -578.9644165039062 105.7242431640625 1072.736938476562
v  -592.96533203125 30.43927192687988 1052.239135742188
v  -592.9644165039062 107.0655288696289 1075.227172851562
v  -580.9644165039062 107.0653228759766 1075.227294921875
v  -578.9649658203125 56.8751106262207 1047.641845703125
v  -578.9642333984375 108.597785949707 1063.15869140625
v  -568.9644165039062 105.7240829467773 1072.737182617188
v  -568.9649047851562 56.87501907348633 1047.641967773438
v  -550.9642333984375 119.03759765625 1078.819458007812
v  -549.9655151367188 20.99542236328125 1048.36279296875
v  -948.964599609375 119.0439300537109 1078.814208984375
v  -948.9644775390625 120.0018081665039 1078.101684570312
v  -550.9642944335938 119.995491027832 1078.10693359375
v  -549.9642944335938 118.995491027832 1077.762939453125
v  -932.9655151367188 30.44486045837402 1052.234741210938
v  -948.9656982421875 20.9597053527832 1049.388916015625
v  -550.9653930664062 19.9954948425293 1048.106689453125
v  -802.9654541015625 30.44271469116211 1052.236328125
v  -722.9654541015625 30.44149208068848 1052.237426757812
v  -672.9654541015625 30.440673828125 1052.238159179688
v  -852.9654541015625 30.44353485107422 1052.235717773438
v  -949.9656982421875 21.00181579589844 1048.357421875
v  -948.9656982421875 20.0018138885498 1048.101440429688
v  -710.9645385742188 107.0674057006836 1075.2255859375
v  -696.9644775390625 107.0670623779297 1075.225708007812
v  -672.9644775390625 107.0668258666992 1075.22607421875
v  -722.9645385742188 107.0675811767578 1075.225463867188
v  -802.964599609375 107.0687789916992 1075.224365234375
v  -826.964599609375 107.069221496582 1075.223999023438
v  -932.9646606445312 107.0708770751953 1075.222778320312
v  -852.9645385742188 107.0696258544922 1075.2236328125
v  -840.9645385742188 107.0693740844727 1075.223876953125
v  -949.9645385742188 119.0018539428711 1077.757568359375
v  -696.9651489257812 51.51307678222656 1058.5595703125
v  -698.965087890625 54.00358200073242 1057.218505859375
v  -710.9651489257812 51.51343536376953 1058.559448242188
v  -708.9651489257812 54.00373077392578 1057.218383789062
v  -698.9644775390625 105.7262268066406 1072.735473632812
v  -708.9644775390625 105.7263641357422 1072.7353515625
v  -724.9653930664062 32.93188095092773 1050.896484375
v  -800.9654541015625 32.93301010131836 1050.8955078125
v  -724.9644775390625 105.7267074584961 1072.735107421875
v  -800.9645385742188 105.7278518676758 1072.734008789062
v  -840.9652709960938 51.51547622680664 1058.557495117188
v  -826.9652099609375 51.51519012451172 1058.557739257812
v  -854.9654541015625 32.93392181396484 1050.894775390625
v  -930.9654541015625 32.93518829345703 1050.893798828125
v  -854.9645385742188 105.7286529541016 1072.733276367188
v  -930.964599609375 105.7299499511719 1072.732177734375
v  -828.9652099609375 54.00565338134766 1057.216796875
v  -838.9652099609375 54.005859375 1057.216674804688
v  -828.964599609375 105.7283401489258 1072.733642578125
v  -838.964599609375 105.7283554077148 1072.733520507812
v  -594.9652099609375 32.92970275878906 1050.898193359375
v  -670.96533203125 32.93098449707031 1050.897094726562
v  -594.9644775390625 105.7244720458984 1072.736694335938
v  -670.9644775390625 105.7257690429688 1072.73583984375
v  -948.9638061523438 120.0018997192383 1029.1015625
v  -549.963623046875 118.9955139160156 1030.10693359375
v  -550.9636840820312 119.9955520629883 1029.10693359375
v  -549.9642333984375 115.9954223632812 1072.686889648438
v  -549.9652099609375 20.99545288085938 1030.106811523438
v  -948.9654541015625 21.00194931030273 1029.101440429688
v  -550.9652099609375 20.99555778503418 1029.106689453125
v  -549.9652099609375 23.99542999267578 1033.106811523438
v  -549.9636840820312 115.9955444335938 1033.10693359375
v  -949.9638671875 119.0019378662109 1030.101684570312
v  -949.9639282226562 116.0019454956055 1033.101684570312
v  -949.9656372070312 24.00177764892578 1046.125366210938
v  -949.964599609375 116.0017700195312 1073.725463867188
v  -949.9654541015625 21.00185966491699 1030.101440429688
v  -949.9653930664062 24.00189590454102 1033.1015625
v  -948.9654541015625 20.00193214416504 1030.1015625
v  -948.9640502929688 114.0019149780273 1034.1015625
v  -948.9644775390625 115.0018692016602 1072.381469726562
v  -948.9639892578125 115.0019302368164 1035.101684570312
v  -948.9654541015625 25.00185394287109 1034.101440429688
v  -948.9656372070312 25.00182342529297 1045.38134765625
v  -550.9652709960938 19.99552536010742 1030.106689453125
v  -549.96533203125 23.99545860290527 1045.086669921875
v  -550.9652099609375 24.99552154541016 1034.106689453125
v  -550.96533203125 24.99544525146484 1045.38671875
v  -550.9637451171875 114.995491027832 1035.10693359375
v  -550.9637451171875 113.9955520629883 1034.10693359375
v  -550.9642333984375 114.9954681396484 1072.38671875
v  -933.9645385742188 109.4654388427734 1070.720825195312
v  -591.96533203125 30.91825485229492 1047.16259765625
v  -673.96533203125 30.91965675354004 1047.16162109375
v  -721.9653930664062 30.92038726806641 1047.161010742188
v  -803.96533203125 30.92163848876953 1047.159912109375
v  -851.9654541015625 30.92242813110352 1047.1591796875
v  -933.9654541015625 30.92376899719238 1047.158203125
v  -565.9650268554688 51.99004745483398 1053.484619140625
v  -565.96435546875 109.4595642089844 1070.725830078125
v  -581.96435546875 109.4598770141602 1070.725463867188
v  -591.96435546875 109.4600677490234 1070.725463867188
v  -695.9644775390625 109.4616775512695 1070.723999023438
v  -711.96435546875 109.4619750976562 1070.723754882812
v  -721.9644775390625 109.4621276855469 1070.7236328125
v  -673.96435546875 109.4613800048828 1070.724365234375
v  -803.9644775390625 109.4635162353516 1070.722534179688
v  -825.9645385742188 109.463752746582 1070.722290039062
v  -841.9644775390625 109.4640808105469 1070.721923828125
v  -851.9645385742188 109.464241027832 1070.721923828125
v  -581.964111328125 112.3332366943359 1061.147216796875
v  -581.9650268554688 51.99016571044922 1053.484497070312
v  -581.9649047851562 54.86384201049805 1043.90625
v  -565.9641723632812 112.3330154418945 1061.1474609375
v  -565.9649047851562 54.8635139465332 1043.906494140625
v  -711.9642944335938 112.3354568481445 1061.1455078125
v  -711.965087890625 51.99231338500977 1053.482788085938
v  -711.9649658203125 54.86601638793945 1043.904541015625
v  -695.965087890625 51.99216461181641 1053.483032226562
v  -695.9642333984375 112.3350677490234 1061.145751953125
v  -695.9649658203125 54.8656005859375 1043.904663085938
v  -591.965087890625 33.7917366027832 1037.584594726562
v  -591.9641723632812 112.3335342407227 1061.147216796875
v  -673.965087890625 33.79303359985352 1037.583374023438
v  -673.9641723632812 112.3348922729492 1061.14599609375
v  -721.9652709960938 33.79380798339844 1037.582763671875
v  -721.9642333984375 112.335693359375 1061.145385742188
v  -825.9652099609375 51.99419021606445 1053.481201171875
v  -803.9652709960938 33.79510498046875 1037.581665039062
v  -803.9642944335938 112.3369903564453 1061.144409179688
v  -841.9642944335938 112.3374862670898 1061.143920898438
v  -841.9651489257812 51.99441146850586 1053.481079101562
v  -841.965087890625 54.86802673339844 1043.90283203125
v  -825.9644165039062 112.337272644043 1061.14404296875
v  -825.9650268554688 54.86772918701172 1043.902954101562
v  -851.96533203125 33.79596710205078 1037.580932617188
v  -851.96435546875 112.3376007080078 1061.143676757812
v  -933.96533203125 33.79723358154297 1037.579833984375
v  -933.96435546875 112.3389129638672 1061.142578125
v  -698.9649658203125 56.87705993652344 1047.640258789062
v  -708.9642944335938 108.599853515625 1063.156982421875
v  -708.9649658203125 56.87723922729492 1047.64013671875
v  -698.9642944335938 108.5996170043945 1063.157104492188
v  -800.9652099609375 35.80659484863281 1041.317260742188
v  -800.96435546875 108.6012725830078 1063.15576171875
v  -724.9652709960938 35.80527114868164 1041.318237304688
v  -724.9642944335938 108.60009765625 1063.15673828125
v  -930.96533203125 35.80862426757812 1041.315551757812
v  -930.9644775390625 108.603401184082 1063.154052734375
v  -854.9652099609375 35.8073844909668 1041.31640625
v  -854.96435546875 108.602165222168 1063.155029296875
v  -828.9650268554688 56.87914657592773 1047.638549804688
v  -838.9644165039062 108.6019287109375 1063.155151367188
v  -838.965087890625 56.87931060791016 1047.638427734375
v  -828.9644165039062 108.6017227172852 1063.1552734375
v  -670.9652099609375 35.80448150634766 1041.31884765625
v  -670.9642944335938 108.5991744995117 1063.157470703125
v  -594.9652099609375 35.80324172973633 1041.31982421875
v  -594.9642944335938 108.5979614257812 1063.158569335938
v  -568.9642944335938 108.5976028442383 1063.15869140625
v  -578.9630126953125 174.0017852783203 1057.220336914062
v  -580.9631958007812 171.5114593505859 1058.561279296875
v  -566.9631958007812 171.5112457275391 1058.561401367188
v  -550.9635009765625 140.9533843994141 1049.394409179688
v  -568.9630737304688 174.0015411376953 1057.220458984375
v  -566.9624633789062 227.0651245117188 1075.227783203125
v  -578.9624633789062 225.7244110107422 1072.737182617188
v  -592.9634399414062 150.4394989013672 1052.239379882812
v  -592.9625244140625 227.0655975341797 1075.227416992188
v  -580.9625244140625 227.0653533935547 1075.2275390625
v  -578.9629516601562 176.8752288818359 1047.641967773438
v  -578.9623413085938 228.5978240966797 1063.158935546875
v  -568.9624633789062 225.7242126464844 1072.7373046875
v  -568.9630126953125 176.8751068115234 1047.642211914062
v  -550.96240234375 239.0377044677734 1078.819702148438
v  -549.9635620117188 140.9954528808594 1048.362915039062
v  -948.9625854492188 239.0440826416016 1078.814575195312
v  -948.9625244140625 240.0018157958984 1078.101928710938
v  -550.9623413085938 239.9955291748047 1078.107177734375
v  -549.96240234375 238.9954986572266 1077.76318359375
v  -932.963623046875 150.4449157714844 1052.23486328125
v  -948.9638671875 140.9598083496094 1049.389038085938
v  -550.9635009765625 139.9955139160156 1048.107055664062
v  -802.9635620117188 150.4428405761719 1052.23681640625
v  -722.9635009765625 150.4416046142578 1052.23779296875
v  -672.9635009765625 150.4407958984375 1052.238403320312
v  -852.963623046875 150.443603515625 1052.235961914062
v  -949.9638061523438 141.0018615722656 1048.357666015625
v  -948.9637451171875 140.0018463134766 1048.101684570312
v  -710.9625854492188 227.0674133300781 1075.225830078125
v  -696.9625854492188 227.0672302246094 1075.225952148438
v  -672.9625854492188 227.0668029785156 1075.226318359375
v  -722.962646484375 227.0675659179688 1075.225708007812
v  -802.962646484375 227.0688323974609 1075.224609375
v  -826.962646484375 227.0691528320312 1075.224243164062
v  -932.9627075195312 227.0709686279297 1075.223022460938
v  -852.962646484375 227.0696868896484 1075.223876953125
v  -840.9627685546875 227.0695190429688 1075.22412109375
v  -949.962646484375 239.0019378662109 1077.7578125
v  -696.9631958007812 171.5132293701172 1058.559692382812
v  -698.963134765625 174.003662109375 1057.218627929688
v  -710.9631958007812 171.5134735107422 1058.5595703125
v  -708.9631958007812 174.0038146972656 1057.218505859375
v  -698.9625244140625 225.7263488769531 1072.735717773438
v  -708.9625854492188 225.7264709472656 1072.735595703125
v  -724.9635009765625 152.931884765625 1050.896606445312
v  -800.9635620117188 152.9330902099609 1050.895751953125
v  -724.9625244140625 225.7266082763672 1072.7353515625
v  -800.962646484375 225.7279357910156 1072.734252929688
v  -840.9633178710938 171.5155029296875 1058.557861328125
v  -826.9634399414062 171.5153961181641 1058.557983398438
v  -854.9635620117188 152.9339752197266 1050.894897460938
v  -930.9635620117188 152.9352569580078 1050.89404296875
v  -854.9627075195312 225.7288208007812 1072.733642578125
v  -930.9627075195312 225.7299499511719 1072.732543945312
v  -828.9632568359375 174.0057067871094 1057.216918945312
v  -838.9632568359375 174.0059051513672 1057.216918945312
v  -828.9627075195312 225.7284088134766 1072.73388671875
v  -838.962646484375 225.7284698486328 1072.733764648438
v  -594.96337890625 152.9297943115234 1050.898315429688
v  -670.96337890625 152.9310455322266 1050.897338867188
v  -594.9625244140625 225.7245788574219 1072.736938476562
v  -670.9625244140625 225.7259063720703 1072.736083984375
v  -948.9619750976562 240.0019683837891 1029.101928710938
v  -549.9616088867188 238.9956970214844 1030.107177734375
v  -550.961669921875 239.9955902099609 1029.107055664062
v  -549.9623413085938 235.9955444335938 1072.68701171875
v  -549.9633178710938 140.9954376220703 1030.107055664062
v  -948.9635009765625 141.0018920898438 1029.101684570312
v  -550.9632568359375 140.9955139160156 1029.10693359375
v  -549.9632568359375 143.9955902099609 1033.107055664062
v  -549.9617309570312 235.9955749511719 1033.107177734375
v  -949.9619750976562 239.0020294189453 1030.101928710938
v  -949.9620361328125 236.0020141601562 1033.101928710938
v  -949.9636840820312 144.0019683837891 1046.125610351562
v  -949.962646484375 236.001953125 1073.725708007812
v  -949.9635620117188 141.001953125 1030.101684570312
v  -949.9635009765625 144.0019226074219 1033.101684570312
v  -948.9635009765625 140.0019989013672 1030.101684570312
v  -948.9620971679688 234.0020141601562 1034.101928710938
v  -948.9625244140625 235.0018768310547 1072.381713867188
v  -948.9619750976562 235.0019989013672 1035.101928710938
v  -948.9635009765625 145.0019683837891 1034.101684570312
v  -948.963623046875 145.0019073486328 1045.381591796875
v  -550.9631958007812 139.9955444335938 1030.107055664062
v  -549.9635009765625 143.9955596923828 1045.0869140625
v  -550.9633178710938 144.9955139160156 1034.10693359375
v  -550.9634399414062 144.9954833984375 1045.386840820312
v  -550.9618530273438 234.9956512451172 1035.107177734375
v  -550.9618530273438 233.9956512451172 1034.107055664062
v  -550.9623413085938 234.9955749511719 1072.386962890625
v  -933.962646484375 229.4656219482422 1070.721069335938
v  -591.96337890625 150.9184265136719 1047.162841796875
v  -673.9634399414062 150.9197082519531 1047.161865234375
v  -721.9635009765625 150.9204406738281 1047.161254882812
v  -803.9635009765625 150.9217224121094 1047.160034179688
v  -851.9635009765625 150.9225006103516 1047.159423828125
v  -933.963623046875 150.9237670898438 1047.158447265625
v  -565.9630737304688 171.9900512695312 1053.48486328125
v  -565.9624633789062 229.459716796875 1070.725952148438
v  -581.9624633789062 229.4599609375 1070.725830078125
v  -591.96240234375 229.4600067138672 1070.725708007812
v  -695.9625244140625 229.4617614746094 1070.724243164062
v  -711.9625244140625 229.4620361328125 1070.723876953125
v  -721.9625244140625 229.4622192382812 1070.723876953125
v  -673.9624633789062 229.4614410400391 1070.724609375
v  -803.9625244140625 229.4635009765625 1070.722778320312
v  -825.9625244140625 229.4639129638672 1070.722534179688
v  -841.9625854492188 229.4640655517578 1070.722290039062
v  -851.962646484375 229.4642486572266 1070.72216796875
v  -581.9622192382812 232.3334655761719 1061.147583007812
v  -581.9630737304688 171.9903564453125 1053.484741210938
v  -581.9629516601562 174.8637847900391 1043.906494140625
v  -565.9622192382812 232.3331909179688 1061.147827148438
v  -565.962890625 174.8636779785156 1043.90673828125
v  -711.9623413085938 232.3354949951172 1061.145751953125
v  -711.9631958007812 171.9924163818359 1053.483032226562
v  -711.9630126953125 174.8659820556641 1043.90478515625
v  -695.963134765625 171.9922790527344 1053.483276367188
v  -695.9622802734375 232.3352661132812 1061.14599609375
v  -695.962890625 174.8655853271484 1043.905029296875
v  -591.9632568359375 153.7918090820312 1037.584716796875
v  -591.9623413085938 232.3336029052734 1061.1474609375
v  -673.9632568359375 153.7931671142578 1037.583618164062
v  -673.9622802734375 232.3349761962891 1061.146240234375
v  -721.9632568359375 153.7939147949219 1037.583129882812
v  -721.9623413085938 232.3357086181641 1061.145629882812
v  -825.9632568359375 171.9942016601562 1053.4814453125
v  -803.9633178710938 153.7952728271484 1037.581909179688
v  -803.9623413085938 232.3369903564453 1061.14453125
v  -841.9623413085938 232.3376159667969 1061.144165039062
v  -841.9633178710938 171.9945526123047 1053.481323242188
v  -841.9630737304688 174.8680267333984 1043.902954101562
v  -825.9622802734375 232.3373413085938 1061.144409179688
v  -825.9630737304688 174.8677673339844 1043.903198242188
v  -851.9633178710938 153.7960052490234 1037.581176757812
v  -851.9624633789062 232.3377532958984 1061.14404296875
v  -933.9635009765625 153.7973785400391 1037.580078125
v  -933.96240234375 232.3390350341797 1061.142944335938
v  -698.9630737304688 176.8771820068359 1047.640502929688
v  -708.9624633789062 228.5999603271484 1063.157348632812
v  -708.9630126953125 176.8773193359375 1047.640380859375
v  -698.96240234375 228.5996856689453 1063.157470703125
v  -800.96337890625 155.8066253662109 1041.317504882812
v  -800.9624633789062 228.6014099121094 1063.156127929688
v  -724.9633178710938 155.8054504394531 1041.318359375
v  -724.9624633789062 228.6001129150391 1063.157104492188
v  -930.96337890625 155.8087310791016 1041.315673828125
v  -930.9625854492188 228.6034698486328 1063.154174804688
v  -854.96337890625 155.8075256347656 1041.316650390625
v  -854.9624633789062 228.6023406982422 1063.1552734375
v  -828.963134765625 176.8792419433594 1047.638671875
v  -838.9625244140625 228.6019744873047 1063.155517578125
v  -838.9630737304688 176.8793640136719 1047.638671875
v  -828.9625244140625 228.6018218994141 1063.155639648438
v  -670.9632568359375 155.8044738769531 1041.319091796875
v  -670.9623413085938 228.5992584228516 1063.15771484375
v  -594.9633178710938 155.8033294677734 1041.320068359375
v  -594.9623413085938 228.5981597900391 1063.15869140625
v  -568.9623413085938 228.5976715087891 1063.159057617188

# 0 UV coordinates

# 35 vertex normals
vn -4.097819328308105e-06 0.4740981757640839 0.8804723024368286
vn -1.712515950202942e-05 -0.2747231125831604 0.9615236520767212
vn -0.7253305912017822 -0.1978039741516113 0.6593705415725708
vn 0.7253066897392273 -0.1978271305561066 0.659389853477478
vn 1.180171966552734e-05 0.9615235924720764 0.2747231423854828
vn 1.000000238418579 -1.594453351572156e-05 1.323223114013672e-05
vn -1.000000238418579 1.603364944458008e-05 -1.321754098171368e-05
vn -1.087784767150879e-06 0.5999985933303833 0.8000013828277588
vn 0.6593800783157349 0.4615546762943268 0.5934522151947021
vn -2.074986696243286e-05 -0.8000014424324036 0.5999985337257385
vn 0.5297954678535461 -0.6622759699821472 0.5298187136650085
vn -0.5298306345939636 -0.6622588634490967 0.5298046469688416
vn -0.6593811511993408 0.4615758061408997 0.593434751033783
vn -2.045184373855591e-05 -0.8804723024368286 0.4740981161594391
vn 1.600384712219238e-05 1.000000357627869 2.026937181653921e-06
vn 0.7071182727813721 0.7070956230163574 1.087784767150879e-05
vn -0.7070956230163574 0.7071182727813721 -7.905066013336182e-06
vn 0.7071163654327393 -9.894371032714844e-06 -0.707097589969635
vn 1.323223114013672e-05 1.937885599545552e-06 -1.000000238418579
vn -0.707097589969635 1.275539398193359e-05 -0.7071163058280945
vn -0.7071183323860168 -0.7070956230163574 -1.093745231628418e-05
vn -0.5773518681526184 -0.5773401260375977 -0.5773592591285706
vn -0.707116425037384 9.894371032714844e-06 0.7070976495742798
vn -0.8784687519073486 -0.3378554880619049 0.3378563523292542
vn -0.7253067493438721 0.1978271901607513 -0.6593899130821228
vn -1.937150955200195e-06 -0.7071054577827454 -0.7071084976196289
vn 0.5773489475250244 -0.5773584842681885 -0.5773439407348633
vn -1.604834142199252e-05 -1.000000238418579 -2.145767211914062e-06
vn 0.7070956230163574 -0.7071182727813721 7.927417755126953e-06
vn 1.71661376953125e-05 0.2747230529785156 -0.9615236520767212
vn 0.707097589969635 -1.278519630432129e-05 0.7071163654327393
vn 0.8784489035606384 -0.3378835916519165 0.3378796875476837
vn -1.173466444015503e-05 -0.9615235924720764 -0.2747231423854828
vn -1.321727540926076e-05 -2.086162567138672e-06 1.000000238418579
vn -2.066045999526978e-05 -0.7071083784103394 0.7071054577827454

# Mesh '' with 1280 faces
usemtl $Material_0
f  1//1 2//1 3//1
f  4//2 3//2 2//2
f  5//1 1//1 3//1
f  6//3 5//3 3//3
f  6//2 3//2 4//2
f  7//4 2//4 1//4
f  8//2 4//2 2//2
f  9//2 8//2 2//2
f  10//2 9//2 2//2
f  7//4 10//4 2//4
f  11//5 1//5 5//5
f  12//6 1//6 11//6
f  12//6 7//6 1//6
f  13//3 5//3 6//3
f  14//7 5//7 13//7
f  11//5 5//5 14//5
f  6//2 4//2 15//2
f  16//4 15//4 4//4
f  6//2 15//2 17//2
f  18//8 17//8 15//8
f  18//8 15//8 19//8
f  20//9 19//9 15//9
f  16//4 20//4 15//4
f  21//2 22//2 4//2
f  23//10 4//10 22//10
f  24//2 4//2 25//2
f  26//2 25//2 4//2
f  27//2 4//2 24//2
f  21//2 4//2 27//2
f  26//2 4//2 8//2
f  16//11 4//11 23//11
f  21//2 17//2 22//2
f  28//3 22//3 17//3
f  29//12 22//12 28//12
f  23//10 22//10 29//10
f  30//2 31//2 17//2
f  32//2 17//2 31//2
f  33//2 30//2 17//2
f  34//2 33//2 17//2
f  35//2 34//2 17//2
f  36//2 37//2 17//2
f  38//2 17//2 37//2
f  21//2 36//2 17//2
f  38//2 35//2 17//2
f  32//2 9//2 17//2
f  10//2 17//2 9//2
f  10//2 6//2 17//2
f  39//13 17//13 18//13
f  28//3 17//3 39//3
f  26//2 31//2 40//2
f  41//3 40//3 31//3
f  26//2 40//2 42//2
f  43//1 42//1 40//1
f  41//1 43//1 40//1
f  44//14 31//14 30//14
f  26//2 32//2 31//2
f  44//3 41//3 31//3
f  33//2 42//2 30//2
f  45//4 30//4 42//4
f  44//14 30//14 45//14
f  33//2 25//2 42//2
f  26//2 42//2 25//2
f  45//4 42//4 43//4
f  46//3 25//3 33//3
f  47//1 24//1 25//1
f  46//1 47//1 25//1
f  48//14 33//14 34//14
f  48//3 46//3 33//3
f  35//2 24//2 34//2
f  49//4 34//4 24//4
f  48//14 34//14 49//14
f  50//2 27//2 24//2
f  35//2 51//2 24//2
f  50//2 24//2 51//2
f  49//4 24//4 47//4
f  50//2 37//2 27//2
f  52//3 27//3 37//3
f  53//1 21//1 27//1
f  52//1 53//1 27//1
f  54//14 37//14 36//14
f  50//2 38//2 37//2
f  54//3 52//3 37//3
f  55//4 36//4 21//4
f  54//14 36//14 55//14
f  55//4 21//4 53//4
f  56//3 51//3 35//3
f  57//1 50//1 51//1
f  56//1 57//1 51//1
f  58//14 35//14 38//14
f  58//3 56//3 35//3
f  59//4 38//4 50//4
f  58//14 38//14 59//14
f  59//4 50//4 57//4
f  60//3 8//3 9//3
f  61//1 26//1 8//1
f  60//1 61//1 8//1
f  62//14 9//14 32//14
f  62//3 60//3 9//3
f  63//4 32//4 26//4
f  62//14 32//14 63//14
f  63//4 26//4 61//4
f  13//14 6//14 10//14
f  7//14 13//14 10//14
f  64//15 18//15 19//15
f  65//16 19//16 20//16
f  65//16 66//16 19//16
f  64//15 19//15 66//15
f  39//17 18//17 64//17
f  67//6 65//6 20//6
f  67//6 20//6 16//6
f  68//18 66//18 65//18
f  69//19 64//19 66//19
f  70//19 69//19 66//19
f  68//18 70//18 66//18
f  71//6 68//6 65//6
f  72//6 71//6 65//6
f  67//6 72//6 65//6
f  73//17 39//17 64//17
f  69//20 73//20 64//20
f  74//7 39//7 73//7
f  75//7 28//7 39//7
f  76//7 39//7 74//7
f  76//7 75//7 39//7
f  74//7 73//7 77//7
f  69//20 77//20 73//20
f  75//7 77//7 28//7
f  29//21 28//21 77//21
f  78//7 74//7 77//7
f  75//7 78//7 77//7
f  79//22 77//22 69//22
f  29//21 77//21 79//21
f  80//23 74//23 78//23
f  81//21 76//21 74//21
f  82//21 81//21 74//21
f  82//24 74//24 80//24
f  83//17 78//17 75//17
f  80//23 78//23 83//23
f  84//25 75//25 76//25
f  83//17 75//17 84//17
f  84//25 76//25 81//25
f  79//26 69//26 70//26
f  85//26 79//26 70//26
f  68//27 85//27 70//27
f  29//28 79//28 85//28
f  23//28 29//28 85//28
f  16//29 23//29 85//29
f  68//29 16//29 85//29
f  71//6 16//6 68//6
f  71//6 86//6 16//6
f  67//6 16//6 86//6
f  87//16 86//16 71//16
f  88//30 67//30 86//30
f  87//16 88//16 86//16
f  87//31 71//31 72//31
f  89//29 72//29 67//29
f  87//31 72//31 90//31
f  89//32 90//32 72//32
f  91//30 67//30 88//30
f  89//29 67//29 91//29
f  92//30 84//30 81//30
f  92//30 81//30 91//30
f  89//28 91//28 81//28
f  82//28 89//28 81//28
f  93//30 88//30 84//30
f  83//15 84//15 88//15
f  94//30 93//30 84//30
f  95//30 94//30 84//30
f  96//30 95//30 84//30
f  97//30 96//30 84//30
f  98//30 97//30 84//30
f  92//30 98//30 84//30
f  99//30 91//30 88//30
f  93//30 99//30 88//30
f  87//15 83//15 88//15
f  100//30 101//30 91//30
f  102//30 91//30 101//30
f  99//30 100//30 91//30
f  103//30 104//30 91//30
f  105//30 91//30 104//30
f  106//30 103//30 91//30
f  102//30 106//30 91//30
f  105//30 107//30 91//30
f  108//30 91//30 107//30
f  108//30 109//30 91//30
f  110//30 91//30 109//30
f  110//30 92//30 91//30
f  111//5 101//5 100//5
f  93//30 101//30 112//30
f  113//7 112//7 101//7
f  102//30 101//30 93//30
f  113//7 101//7 111//7
f  114//6 100//6 99//6
f  114//5 111//5 100//5
f  93//30 112//30 99//30
f  115//33 99//33 112//33
f  115//6 114//6 99//6
f  115//33 112//33 113//33
f  116//5 104//5 103//5
f  95//30 104//30 117//30
f  118//7 117//7 104//7
f  105//30 104//30 95//30
f  118//7 104//7 116//7
f  106//30 119//30 103//30
f  120//6 103//6 119//6
f  120//5 116//5 103//5
f  95//30 117//30 119//30
f  121//33 119//33 117//33
f  106//30 94//30 119//30
f  95//30 119//30 94//30
f  121//6 120//6 119//6
f  121//33 117//33 118//33
f  122//33 93//33 94//33
f  123//6 102//6 93//6
f  123//6 93//6 122//6
f  124//7 94//7 106//7
f  124//33 122//33 94//33
f  125//5 106//5 102//5
f  125//7 124//7 106//7
f  125//5 102//5 123//5
f  126//33 95//33 96//33
f  127//6 105//6 95//6
f  127//6 95//6 126//6
f  128//30 107//30 96//30
f  129//7 96//7 107//7
f  97//30 128//30 96//30
f  129//33 126//33 96//33
f  130//5 107//5 105//5
f  128//30 108//30 107//30
f  130//7 129//7 107//7
f  130//5 105//5 127//5
f  131//5 109//5 108//5
f  97//30 109//30 132//30
f  133//7 132//7 109//7
f  110//30 109//30 97//30
f  133//7 109//7 131//7
f  134//6 108//6 128//6
f  134//5 131//5 108//5
f  97//30 132//30 128//30
f  135//33 128//33 132//33
f  135//6 134//6 128//6
f  135//33 132//33 133//33
f  136//33 97//33 98//33
f  137//6 110//6 97//6
f  137//6 97//6 136//6
f  138//7 98//7 92//7
f  138//33 136//33 98//33
f  139//5 92//5 110//5
f  139//7 138//7 92//7
f  139//5 110//5 137//5
f  87//34 80//34 83//34
f  87//34 90//34 80//34
f  82//35 80//35 90//35
f  82//35 90//35 89//35
f  115//30 111//30 114//30
f  115//30 113//30 111//30
f  121//30 116//30 120//30
f  121//30 118//30 116//30
f  125//30 122//30 124//30
f  125//30 123//30 122//30
f  130//30 126//30 129//30
f  130//30 127//30 126//30
f  135//30 131//30 134//30
f  135//30 133//30 131//30
f  139//30 136//30 138//30
f  139//30 137//30 136//30
f  140//5 43//5 41//5
f  141//6 45//6 43//6
f  142//6 141//6 43//6
f  140//5 142//5 43//5
f  140//7 41//7 44//7
f  44//33 45//33 141//33
f  143//2 141//2 142//2
f  143//33 44//33 141//33
f  140//2 143//2 142//2
f  140//7 44//7 143//7
f  144//5 47//5 46//5
f  145//6 49//6 47//6
f  144//6 145//6 47//6
f  146//5 144//5 46//5
f  146//7 46//7 48//7
f  147//33 49//33 145//33
f  147//33 48//33 49//33
f  147//2 145//2 144//2
f  146//2 147//2 144//2
f  146//7 48//7 147//7
f  148//5 53//5 52//5
f  149//6 55//6 53//6
f  148//6 149//6 53//6
f  150//5 148//5 52//5
f  150//7 52//7 54//7
f  151//33 55//33 149//33
f  151//33 54//33 55//33
f  151//2 149//2 148//2
f  150//2 151//2 148//2
f  150//7 54//7 151//7
f  152//5 57//5 56//5
f  153//6 59//6 57//6
f  154//6 153//6 57//6
f  152//5 154//5 57//5
f  152//7 56//7 58//7
f  58//33 59//33 153//33
f  155//2 153//2 154//2
f  155//33 58//33 153//33
f  152//2 155//2 154//2
f  152//7 58//7 155//7
f  156//5 61//5 60//5
f  157//6 63//6 61//6
f  156//6 157//6 61//6
f  158//5 156//5 60//5
f  158//7 60//7 62//7
f  159//33 63//33 157//33
f  159//33 62//33 63//33
f  159//2 157//2 156//2
f  158//2 159//2 156//2
f  158//7 62//7 159//7
f  160//7 14//7 13//7
f  12//33 160//33 13//33
f  12//33 13//33 7//33
f  11//2 14//2 160//2
f  12//2 11//2 160//2
f  161//1 162//1 163//1
f  164//2 163//2 162//2
f  165//1 161//1 163//1
f  166//3 165//3 163//3
f  166//2 163//2 164//2
f  167//4 162//4 161//4
f  168//2 164//2 162//2
f  169//2 168//2 162//2
f  170//2 169//2 162//2
f  167//4 170//4 162//4
f  171//5 161//5 165//5
f  172//6 161//6 171//6
f  172//6 167//6 161//6
f  173//3 165//3 166//3
f  174//7 165//7 173//7
f  171//5 165//5 174//5
f  166//2 164//2 175//2
f  176//4 175//4 164//4
f  166//2 175//2 177//2
f  178//8 177//8 175//8
f  178//8 175//8 179//8
f  180//9 179//9 175//9
f  176//4 180//4 175//4
f  181//2 182//2 164//2
f  183//10 164//10 182//10
f  184//2 164//2 185//2
f  186//2 185//2 164//2
f  187//2 164//2 184//2
f  181//2 164//2 187//2
f  186//2 164//2 168//2
f  176//11 164//11 183//11
f  181//2 177//2 182//2
f  188//3 182//3 177//3
f  189//12 182//12 188//12
f  183//10 182//10 189//10
f  190//2 191//2 177//2
f  192//2 177//2 191//2
f  193//2 190//2 177//2
f  194//2 193//2 177//2
f  195//2 194//2 177//2
f  196//2 197//2 177//2
f  198//2 177//2 197//2
f  181//2 196//2 177//2
f  198//2 195//2 177//2
f  192//2 169//2 177//2
f  170//2 177//2 169//2
f  170//2 166//2 177//2
f  199//13 177//13 178//13
f  188//3 177//3 199//3
f  186//2 191//2 200//2
f  201//3 200//3 191//3
f  186//2 200//2 202//2
f  203//1 202//1 200//1
f  201//1 203//1 200//1
f  204//14 191//14 190//14
f  186//2 192//2 191//2
f  204//3 201//3 191//3
f  193//2 202//2 190//2
f  205//4 190//4 202//4
f  204//14 190//14 205//14
f  193//2 185//2 202//2
f  186//2 202//2 185//2
f  205//4 202//4 203//4
f  206//3 185//3 193//3
f  207//1 184//1 185//1
f  206//1 207//1 185//1
f  208//14 193//14 194//14
f  208//3 206//3 193//3
f  195//2 184//2 194//2
f  209//4 194//4 184//4
f  208//14 194//14 209//14
f  210//2 187//2 184//2
f  195//2 211//2 184//2
f  210//2 184//2 211//2
f  209//4 184//4 207//4
f  210//2 197//2 187//2
f  212//3 187//3 197//3
f  213//1 181//1 187//1
f  212//1 213//1 187//1
f  214//14 197//14 196//14
f  210//2 198//2 197//2
f  214//3 212//3 197//3
f  215//4 196//4 181//4
f  214//14 196//14 215//14
f  215//4 181//4 213//4
f  216//3 211//3 195//3
f  217//1 210//1 211//1
f  216//1 217//1 211//1
f  218//14 195//14 198//14
f  218//3 216//3 195//3
f  219//4 198//4 210//4
f  218//14 198//14 219//14
f  219//4 210//4 217//4
f  220//3 168//3 169//3
f  221//1 186//1 168//1
f  220//1 221//1 168//1
f  222//14 169//14 192//14
f  222//3 220//3 169//3
f  223//4 192//4 186//4
f  222//14 192//14 223//14
f  223//4 186//4 221//4
f  173//14 166//14 170//14
f  167//14 173//14 170//14
f  224//15 178//15 179//15
f  225//16 179//16 180//16
f  225//16 226//16 179//16
f  224//15 179//15 226//15
f  199//17 178//17 224//17
f  227//6 225//6 180//6
f  227//6 180//6 176//6
f  228//18 226//18 225//18
f  229//19 224//19 226//19
f  230//19 229//19 226//19
f  228//18 230//18 226//18
f  231//6 228//6 225//6
f  232//6 231//6 225//6
f  227//6 232//6 225//6
f  233//17 199//17 224//17
f  229//20 233//20 224//20
f  234//7 199//7 233//7
f  235//7 188//7 199//7
f  236//7 199//7 234//7
f  236//7 235//7 199//7
f  234//7 233//7 237//7
f  229//20 237//20 233//20
f  235//7 237//7 188//7
f  189//21 188//21 237//21
f  238//7 234//7 237//7
f  235//7 238//7 237//7
f  239//22 237//22 229//22
f  189//21 237//21 239//21
f  240//23 234//23 238//23
f  241//21 236//21 234//21
f  242//21 241//21 234//21
f  242//24 234//24 240//24
f  243//17 238//17 235//17
f  240//23 238//23 243//23
f  244//25 235//25 236//25
f  243//17 235//17 244//17
f  244//25 236//25 241//25
f  239//26 229//26 230//26
f  245//26 239//26 230//26
f  228//27 245//27 230//27
f  189//28 239//28 245//28
f  183//28 189//28 245//28
f  176//29 183//29 245//29
f  228//29 176//29 245//29
f  231//6 176//6 228//6
f  231//6 246//6 176//6
f  227//6 176//6 246//6
f  247//16 246//16 231//16
f  248//30 227//30 246//30
f  247//16 248//16 246//16
f  247//31 231//31 232//31
f  249//29 232//29 227//29
f  247//31 232//31 250//31
f  249//32 250//32 232//32
f  251//30 227//30 248//30
f  249//29 227//29 251//29
f  252//30 244//30 241//30
f  252//30 241//30 251//30
f  249//28 251//28 241//28
f  242//28 249//28 241//28
f  253//30 248//30 244//30
f  243//15 244//15 248//15
f  254//30 253//30 244//30
f  255//30 254//30 244//30
f  256//30 255//30 244//30
f  257//30 256//30 244//30
f  258//30 257//30 244//30
f  252//30 258//30 244//30
f  259//30 251//30 248//30
f  253//30 259//30 248//30
f  247//15 243//15 248//15
f  260//30 261//30 251//30
f  262//30 251//30 261//30
f  259//30 260//30 251//30
f  263//30 264//30 251//30
f  265//30 251//30 264//30
f  266//30 263//30 251//30
f  262//30 266//30 251//30
f  265//30 267//30 251//30
f  268//30 251//30 267//30
f  268//30 269//30 251//30
f  270//30 251//30 269//30
f  270//30 252//30 251//30
f  271//5 261//5 260//5
f  253//30 261//30 272//30
f  273//7 272//7 261//7
f  262//30 261//30 253//30
f  273//7 261//7 271//7
f  274//6 260//6 259//6
f  274//5 271//5 260//5
f  253//30 272//30 259//30
f  275//33 259//33 272//33
f  275//6 274//6 259//6
f  275//33 272//33 273//33
f  276//5 264//5 263//5
f  255//30 264//30 277//30
f  278//7 277//7 264//7
f  265//30 264//30 255//30
f  278//7 264//7 276//7
f  266//30 279//30 263//30
f  280//6 263//6 279//6
f  280//5 276//5 263//5
f  255//30 277//30 279//30
f  281//33 279//33 277//33
f  266//30 254//30 279//30
f  255//30 279//30 254//30
f  281//6 280//6 279//6
f  281//33 277//33 278//33
f  282//33 253//33 254//33
f  283//6 262//6 253//6
f  283//6 253//6 282//6
f  284//7 254//7 266//7
f  284//33 282//33 254//33
f  285//5 266//5 262//5
f  285//7 284//7 266//7
f  285//5 262//5 283//5
f  286//33 255//33 256//33
f  287//6 265//6 255//6
f  287//6 255//6 286//6
f  288//30 267//30 256//30
f  289//7 256//7 267//7
f  257//30 288//30 256//30
f  289//33 286//33 256//33
f  290//5 267//5 265//5
f  288//30 268//30 267//30
f  290//7 289//7 267//7
f  290//5 265//5 287//5
f  291//5 269//5 268//5
f  257//30 269//30 292//30
f  293//7 292//7 269//7
f  270//30 269//30 257//30
f  293//7 269//7 291//7
f  294//6 268//6 288//6
f  294//5 291//5 268//5
f  257//30 292//30 288//30
f  295//33 288//33 292//33
f  295//6 294//6 288//6
f  295//33 292//33 293//33
f  296//33 257//33 258//33
f  297//6 270//6 257//6
f  297//6 257//6 296//6
f  298//7 258//7 252//7
f  298//33 296//33 258//33
f  299//5 252//5 270//5
f  299//7 298//7 252//7
f  299//5 270//5 297//5
f  247//34 240//34 243//34
f  247//34 250//34 240//34
f  242//35 240//35 250//35
f  242//35 250//35 249//35
f  275//30 271//30 274//30
f  275//30 273//30 271//30
f  281//30 276//30 280//30
f  281//30 278//30 276//30
f  285//30 282//30 284//30
f  285//30 283//30 282//30
f  290//30 286//30 289//30
f  290//30 287//30 286//30
f  295//30 291//30 294//30
f  295//30 293//30 291//30
f  299//30 296//30 298//30
f  299//30 297//30 296//30
f  300//5 203//5 201//5
f  301//6 205//6 203//6
f  302//6 301//6 203//6
f  300//5 302//5 203//5
f  300//7 201//7 204//7
f  204//33 205//33 301//33
f  303//2 301//2 302//2
f  303//33 204//33 301//33
f  300//2 303//2 302//2
f  300//7 204//7 303//7
f  304//5 207//5 206//5
f  305//6 209//6 207//6
f  304//6 305//6 207//6
f  306//5 304//5 206//5
f  306//7 206//7 208//7
f  307//33 209//33 305//33
f  307//33 208//33 209//33
f  307//2 305//2 304//2
f  306//2 307//2 304//2
f  306//7 208//7 307//7
f  308//5 213//5 212//5
f  309//6 215//6 213//6
f  308//6 309//6 213//6
f  310//5 308//5 212//5
f  310//7 212//7 214//7
f  311//33 215//33 309//33
f  311//33 214//33 215//33
f  311//2 309//2 308//2
f  310//2 311//2 308//2
f  310//7 214//7 311//7
f  312//5 217//5 216//5
f  313//6 219//6 217//6
f  314//6 313//6 217//6
f  312//5 314//5 217//5
f  312//7 216//7 218//7
f  218//33 219//33 313//33
f  315//2 313//2 314//2
f  315//33 218//33 313//33
f  312//2 315//2 314//2
f  312//7 218//7 315//7
f  316//5 221//5 220//5
f  317//6 223//6 221//6
f  316//6 317//6 221//6
f  318//5 316//5 220//5
f  318//7 220//7 222//7
f  319//33 223//33 317//33
f  319//33 222//33 223//33
f  319//2 317//2 316//2
f  318//2 319//2 316//2
f  318//7 222//7 319//7
f  320//7 174//7 173//7
f  172//33 320//33 173//33
f  172//33 173//33 167//33
f  171//2 174//2 320//2
f  172//2 171//2 320//2
f  321//1 322//1 323//1
f  324//2 323//2 322//2
f  325//1 321//1 323//1
f  326//3 325//3 323//3
f  326//2 323//2 324//2
f  327//4 322//4 321//4
f  328//2 324//2 322//2
f  329//2 328//2 322//2
f  330//2 329//2 322//2
f  327//4 330//4 322//4
f  331//5 321//5 325//5
f  332//6 321//6 331//6
f  332//6 327//6 321//6
f  333//3 325//3 326//3
f  334//7 325//7 333//7
f  331//5 325//5 334//5
f  326//2 324//2 335//2
f  336//4 335//4 324//4
f  326//2 335//2 337//2
f  338//8 337//8 335//8
f  338//8 335//8 339//8
f  340//9 339//9 335//9
f  336//4 340//4 335//4
f  341//2 342//2 324//2
f  343//10 324//10 342//10
f  344//2 324//2 345//2
f  346//2 345//2 324//2
f  347//2 324//2 344//2
f  341//2 324//2 347//2
f  346//2 324//2 328//2
f  336//11 324//11 343//11
f  341//2 337//2 342//2
f  348//3 342//3 337//3
f  349//12 342//12 348//12
f  343//10 342//10 349//10
f  350//2 351//2 337//2
f  352//2 337//2 351//2
f  353//2 350//2 337//2
f  354//2 353//2 337//2
f  355//2 354//2 337//2
f  356//2 357//2 337//2
f  358//2 337//2 357//2
f  341//2 356//2 337//2
f  358//2 355//2 337//2
f  352//2 329//2 337//2
f  330//2 337//2 329//2
f  330//2 326//2 337//2
f  359//13 337//13 338//13
f  348//3 337//3 359//3
f  346//2 351//2 360//2
f  361//3 360//3 351//3
f  346//2 360//2 362//2
f  363//1 362//1 360//1
f  361//1 363//1 360//1
f  364//14 351//14 350//14
f  346//2 352//2 351//2
f  364//3 361//3 351//3
f  353//2 362//2 350//2
f  365//4 350//4 362//4
f  364//14 350//14 365//14
f  353//2 345//2 362//2
f  346//2 362//2 345//2
f  365//4 362//4 363//4
f  366//3 345//3 353//3
f  367//1 344//1 345//1
f  366//1 367//1 345//1
f  368//14 353//14 354//14
f  368//3 366//3 353//3
f  355//2 344//2 354//2
f  369//4 354//4 344//4
f  368//14 354//14 369//14
f  370//2 347//2 344//2
f  355//2 371//2 344//2
f  370//2 344//2 371//2
f  369//4 344//4 367//4
f  370//2 357//2 347//2
f  372//3 347//3 357//3
f  373//1 341//1 347//1
f  372//1 373//1 347//1
f  374//14 357//14 356//14
f  370//2 358//2 357//2
f  374//3 372//3 357//3
f  375//4 356//4 341//4
f  374//14 356//14 375//14
f  375//4 341//4 373//4
f  376//3 371//3 355//3
f  377//1 370//1 371//1
f  376//1 377//1 371//1
f  378//14 355//14 358//14
f  378//3 376//3 355//3
f  379//4 358//4 370//4
f  378//14 358//14 379//14
f  379//4 370//4 377//4
f  380//3 328//3 329//3
f  381//1 346//1 328//1
f  380//1 381//1 328//1
f  382//14 329//14 352//14
f  382//3 380//3 329//3
f  383//4 352//4 346//4
f  382//14 352//14 383//14
f  383//4 346//4 381//4
f  333//14 326//14 330//14
f  327//14 333//14 330//14
f  384//15 338//15 339//15
f  385//16 339//16 340//16
f  385//16 386//16 339//16
f  384//15 339//15 386//15
f  359//17 338//17 384//17
f  387//6 385//6 340//6
f  387//6 340//6 336//6
f  388//18 386//18 385//18
f  389//19 384//19 386//19
f  390//19 389//19 386//19
f  388//18 390//18 386//18
f  391//6 388//6 385//6
f  392//6 391//6 385//6
f  387//6 392//6 385//6
f  393//17 359//17 384//17
f  389//20 393//20 384//20
f  394//7 359//7 393//7
f  395//7 348//7 359//7
f  396//7 359//7 394//7
f  396//7 395//7 359//7
f  394//7 393//7 397//7
f  389//20 397//20 393//20
f  395//7 397//7 348//7
f  349//21 348//21 397//21
f  398//7 394//7 397//7
f  395//7 398//7 397//7
f  399//22 397//22 389//22
f  349//21 397//21 399//21
f  400//23 394//23 398//23
f  401//21 396//21 394//21
f  402//21 401//21 394//21
f  402//24 394//24 400//24
f  403//17 398//17 395//17
f  400//23 398//23 403//23
f  404//25 395//25 396//25
f  403//17 395//17 404//17
f  404//25 396//25 401//25
f  399//26 389//26 390//26
f  405//26 399//26 390//26
f  388//27 405//27 390//27
f  349//28 399//28 405//28
f  343//28 349//28 405//28
f  336//29 343//29 405//29
f  388//29 336//29 405//29
f  391//6 336//6 388//6
f  391//6 406//6 336//6
f  387//6 336//6 406//6
f  407//16 406//16 391//16
f  408//30 387//30 406//30
f  407//16 408//16 406//16
f  407//31 391//31 392//31
f  409//29 392//29 387//29
f  407//31 392//31 410//31
f  409//32 410//32 392//32
f  411//30 387//30 408//30
f  409//29 387//29 411//29
f  412//30 404//30 401//30
f  412//30 401//30 411//30
f  409//28 411//28 401//28
f  402//28 409//28 401//28
f  413//30 408//30 404//30
f  403//15 404//15 408//15
f  414//30 413//30 404//30
f  415//30 414//30 404//30
f  416//30 415//30 404//30
f  417//30 416//30 404//30
f  418//30 417//30 404//30
f  412//30 418//30 404//30
f  419//30 411//30 408//30
f  413//30 419//30 408//30
f  407//15 403//15 408//15
f  420//30 421//30 411//30
f  422//30 411//30 421//30
f  419//30 420//30 411//30
f  423//30 424//30 411//30
f  425//30 411//30 424//30
f  426//30 423//30 411//30
f  422//30 426//30 411//30
f  425//30 427//30 411//30
f  428//30 411//30 427//30
f  428//30 429//30 411//30
f  430//30 411//30 429//30
f  430//30 412//30 411//30
f  431//5 421//5 420//5
f  413//30 421//30 432//30
f  433//7 432//7 421//7
f  422//30 421//30 413//30
f  433//7 421//7 431//7
f  434//6 420//6 419//6
f  434//5 431//5 420//5
f  413//30 432//30 419//30
f  435//33 419//33 432//33
f  435//6 434//6 419//6
f  435//33 432//33 433//33
f  436//5 424//5 423//5
f  415//30 424//30 437//30
f  438//7 437//7 424//7
f  425//30 424//30 415//30
f  438//7 424//7 436//7
f  426//30 439//30 423//30
f  440//6 423//6 439//6
f  440//5 436//5 423//5
f  415//30 437//30 439//30
f  441//33 439//33 437//33
f  426//30 414//30 439//30
f  415//30 439//30 414//30
f  441//6 440//6 439//6
f  441//33 437//33 438//33
f  442//33 413//33 414//33
f  443//6 422//6 413//6
f  443//6 413//6 442//6
f  444//7 414//7 426//7
f  444//33 442//33 414//33
f  445//5 426//5 422//5
f  445//7 444//7 426//7
f  445//5 422//5 443//5
f  446//33 415//33 416//33
f  447//6 425//6 415//6
f  447//6 415//6 446//6
f  448//30 427//30 416//30
f  449//7 416//7 427//7
f  417//30 448//30 416//30
f  449//33 446//33 416//33
f  450//5 427//5 425//5
f  448//30 428//30 427//30
f  450//7 449//7 427//7
f  450//5 425//5 447//5
f  451//5 429//5 428//5
f  417//30 429//30 452//30
f  453//7 452//7 429//7
f  430//30 429//30 417//30
f  453//7 429//7 451//7
f  454//6 428//6 448//6
f  454//5 451//5 428//5
f  417//30 452//30 448//30
f  455//33 448//33 452//33
f  455//6 454//6 448//6
f  455//33 452//33 453//33
f  456//33 417//33 418//33
f  457//6 430//6 417//6
f  457//6 417//6 456//6
f  458//7 418//7 412//7
f  458//33 456//33 418//33
f  459//5 412//5 430//5
f  459//7 458//7 412//7
f  459//5 430//5 457//5
f  407//34 400//34 403//34
f  407//34 410//34 400//34
f  402//35 400//35 410//35
f  402//35 410//35 409//35
f  435//30 431//30 434//30
f  435//30 433//30 431//30
f  441//30 436//30 440//30
f  441//30 438//30 436//30
f  445//30 442//30 444//30
f  445//30 443//30 442//30
f  450//30 446//30 449//30
f  450//30 447//30 446//30
f  455//30 451//30 454//30
f  455//30 453//30 451//30
f  459//30 456//30 458//30
f  459//30 457//30 456//30
f  460//5 363//5 361//5
f  461//6 365//6 363//6
f  462//6 461//6 363//6
f  460//5 462//5 363//5
f  460//7 361//7 364//7
f  364//33 365//33 461//33
f  463//2 461//2 462//2
f  463//33 364//33 461//33
f  460//2 463//2 462//2
f  460//7 364//7 463//7
f  464//5 367//5 366//5
f  465//6 369//6 367//6
f  464//6 465//6 367//6
f  466//5 464//5 366//5
f  466//7 366//7 368//7
f  467//33 369//33 465//33
f  467//33 368//33 369//33
f  467//2 465//2 464//2
f  466//2 467//2 464//2
f  466//7 368//7 467//7
f  468//5 373//5 372//5
f  469//6 375//6 373//6
f  468//6 469//6 373//6
f  470//5 468//5 372//5
f  470//7 372//7 374//7
f  471//33 375//33 469//33
f  471//33 374//33 375//33
f  471//2 469//2 468//2
f  470//2 471//2 468//2
f  470//7 374//7 471//7
f  472//5 377//5 376//5
f  473//6 379//6 377//6
f  474//6 473//6 377//6
f  472//5 474//5 377//5
f  472//7 376//7 378//7
f  378//33 379//33 473//33
f  475//2 473//2 474//2
f  475//33 378//33 473//33
f  472//2 475//2 474//2
f  472//7 378//7 475//7
f  476//5 381//5 380//5
f  477//6 383//6 381//6
f  476//6 477//6 381//6
f  478//5 476//5 380//5
f  478//7 380//7 382//7
f  479//33 383//33 477//33
f  479//33 382//33 383//33
f  479//2 477//2 476//2
f  478//2 479//2 476//2
f  478//7 382//7 479//7
f  480//7 334//7 333//7
f  332//33 480//33 333//33
f  332//33 333//33 327//33
f  331//2 334//2 480//2
f  332//2 331//2 480//2
f  481//1 482//1 483//1
f  484//2 483//2 482//2
f  485//1 481//1 483//1
f  486//3 485//3 483//3
f  486//2 483//2 484//2
f  487//4 482//4 481//4
f  488//2 484//2 482//2
f  489//2 488//2 482//2
f  490//2 489//2 482//2
f  487//4 490//4 482//4
f  491//5 481//5 485//5
f  492//6 481//6 491//6
f  492//6 487//6 481//6
f  493//3 485//3 486//3
f  494//7 485//7 493//7
f  491//5 485//5 494//5
f  486//2 484//2 495//2
f  496//4 495//4 484//4
f  486//2 495//2 497//2
f  498//8 497//8 495//8
f  498//8 495//8 499//8
f  500//9 499//9 495//9
f  496//4 500//4 495//4
f  501//2 502//2 484//2
f  503//10 484//10 502//10
f  504//2 484//2 505//2
f  506//2 505//2 484//2
f  507//2 484//2 504//2
f  501//2 484//2 507//2
f  506//2 484//2 488//2
f  496//11 484//11 503//11
f  501//2 497//2 502//2
f  508//3 502//3 497//3
f  509//12 502//12 508//12
f  503//10 502//10 509//10
f  510//2 511//2 497//2
f  512//2 497//2 511//2
f  513//2 510//2 497//2
f  514//2 513//2 497//2
f  515//2 514//2 497//2
f  516//2 517//2 497//2
f  518//2 497//2 517//2
f  501//2 516//2 497//2
f  518//2 515//2 497//2
f  512//2 489//2 497//2
f  490//2 497//2 489//2
f  490//2 486//2 497//2
f  519//13 497//13 498//13
f  508//3 497//3 519//3
f  506//2 511//2 520//2
f  521//3 520//3 511//3
f  506//2 520//2 522//2
f  523//1 522//1 520//1
f  521//1 523//1 520//1
f  524//14 511//14 510//14
f  506//2 512//2 511//2
f  524//3 521//3 511//3
f  513//2 522//2 510//2
f  525//4 510//4 522//4
f  524//14 510//14 525//14
f  513//2 505//2 522//2
f  506//2 522//2 505//2
f  525//4 522//4 523//4
f  526//3 505//3 513//3
f  527//1 504//1 505//1
f  526//1 527//1 505//1
f  528//14 513//14 514//14
f  528//3 526//3 513//3
f  515//2 504//2 514//2
f  529//4 514//4 504//4
f  528//14 514//14 529//14
f  530//2 507//2 504//2
f  515//2 531//2 504//2
f  530//2 504//2 531//2
f  529//4 504//4 527//4
f  530//2 517//2 507//2
f  532//3 507//3 517//3
f  533//1 501//1 507//1
f  532//1 533//1 507//1
f  534//14 517//14 516//14
f  530//2 518//2 517//2
f  534//3 532//3 517//3
f  535//4 516//4 501//4
f  534//14 516//14 535//14
f  535//4 501//4 533//4
f  536//3 531//3 515//3
f  537//1 530//1 531//1
f  536//1 537//1 531//1
f  538//14 515//14 518//14
f  538//3 536//3 515//3
f  539//4 518//4 530//4
f  538//14 518//14 539//14
f  539//4 530//4 537//4
f  540//3 488//3 489//3
f  541//1 506//1 488//1
f  540//1 541//1 488//1
f  542//14 489//14 512//14
f  542//3 540//3 489//3
f  543//4 512//4 506//4
f  542//14 512//14 543//14
f  543//4 506//4 541//4
f  493//14 486//14 490//14
f  487//14 493//14 490//14
f  544//15 498//15 499//15
f  545//16 499//16 500//16
f  545//16 546//16 499//16
f  544//15 499//15 546//15
f  519//17 498//17 544//17
f  547//6 545//6 500//6
f  547//6 500//6 496//6
f  548//18 546//18 545//18
f  549//19 544//19 546//19
f  550//19 549//19 546//19
f  548//18 550//18 546//18
f  551//6 548//6 545//6
f  552//6 551//6 545//6
f  547//6 552//6 545//6
f  553//17 519//17 544//17
f  549//20 553//20 544//20
f  554//7 519//7 553//7
f  555//7 508//7 519//7
f  556//7 519//7 554//7
f  556//7 555//7 519//7
f  554//7 553//7 557//7
f  549//20 557//20 553//20
f  555//7 557//7 508//7
f  509//21 508//21 557//21
f  558//7 554//7 557//7
f  555//7 558//7 557//7
f  559//22 557//22 549//22
f  509//21 557//21 559//21
f  560//23 554//23 558//23
f  561//21 556//21 554//21
f  562//21 561//21 554//21
f  562//24 554//24 560//24
f  563//17 558//17 555//17
f  560//23 558//23 563//23
f  564//25 555//25 556//25
f  563//17 555//17 564//17
f  564//25 556//25 561//25
f  559//26 549//26 550//26
f  565//26 559//26 550//26
f  548//27 565//27 550//27
f  509//28 559//28 565//28
f  503//28 509//28 565//28
f  496//29 503//29 565//29
f  548//29 496//29 565//29
f  551//6 496//6 548//6
f  551//6 566//6 496//6
f  547//6 496//6 566//6
f  567//16 566//16 551//16
f  568//30 547//30 566//30
f  567//16 568//16 566//16
f  567//31 551//31 552//31
f  569//29 552//29 547//29
f  567//31 552//31 570//31
f  569//32 570//32 552//32
f  571//30 547//30 568//30
f  569//29 547//29 571//29
f  572//30 564//30 561//30
f  572//30 561//30 571//30
f  569//28 571//28 561//28
f  562//28 569//28 561//28
f  573//30 568//30 564//30
f  563//15 564//15 568//15
f  574//30 573//30 564//30
f  575//30 574//30 564//30
f  576//30 575//30 564//30
f  577//30 576//30 564//30
f  578//30 577//30 564//30
f  572//30 578//30 564//30
f  579//30 571//30 568//30
f  573//30 579//30 568//30
f  567//15 563//15 568//15
f  580//30 581//30 571//30
f  582//30 571//30 581//30
f  579//30 580//30 571//30
f  583//30 584//30 571//30
f  585//30 571//30 584//30
f  586//30 583//30 571//30
f  582//30 586//30 571//30
f  585//30 587//30 571//30
f  588//30 571//30 587//30
f  588//30 589//30 571//30
f  590//30 571//30 589//30
f  590//30 572//30 571//30
f  591//5 581//5 580//5
f  573//30 581//30 592//30
f  593//7 592//7 581//7
f  582//30 581//30 573//30
f  593//7 581//7 591//7
f  594//6 580//6 579//6
f  594//5 591//5 580//5
f  573//30 592//30 579//30
f  595//33 579//33 592//33
f  595//6 594//6 579//6
f  595//33 592//33 593//33
f  596//5 584//5 583//5
f  575//30 584//30 597//30
f  598//7 597//7 584//7
f  585//30 584//30 575//30
f  598//7 584//7 596//7
f  586//30 599//30 583//30
f  600//6 583//6 599//6
f  600//5 596//5 583//5
f  575//30 597//30 599//30
f  601//33 599//33 597//33
f  586//30 574//30 599//30
f  575//30 599//30 574//30
f  601//6 600//6 599//6
f  601//33 597//33 598//33
f  602//33 573//33 574//33
f  603//6 582//6 573//6
f  603//6 573//6 602//6
f  604//7 574//7 586//7
f  604//33 602//33 574//33
f  605//5 586//5 582//5
f  605//7 604//7 586//7
f  605//5 582//5 603//5
f  606//33 575//33 576//33
f  607//6 585//6 575//6
f  607//6 575//6 606//6
f  608//30 587//30 576//30
f  609//7 576//7 587//7
f  577//30 608//30 576//30
f  609//33 606//33 576//33
f  610//5 587//5 585//5
f  608//30 588//30 587//30
f  610//7 609//7 587//7
f  610//5 585//5 607//5
f  611//5 589//5 588//5
f  577//30 589//30 612//30
f  613//7 612//7 589//7
f  590//30 589//30 577//30
f  613//7 589//7 611//7
f  614//6 588//6 608//6
f  614//5 611//5 588//5
f  577//30 612//30 608//30
f  615//33 608//33 612//33
f  615//6 614//6 608//6
f  615//33 612//33 613//33
f  616//33 577//33 578//33
f  617//6 590//6 577//6
f  617//6 577//6 616//6
f  618//7 578//7 572//7
f  618//33 616//33 578//33
f  619//5 572//5 590//5
f  619//7 618//7 572//7
f  619//5 590//5 617//5
f  567//34 560//34 563//34
f  567//34 570//34 560//34
f  562//35 560//35 570//35
f  562//35 570//35 569//35
f  595//30 591//30 594//30
f  595//30 593//30 591//30
f  601//30 596//30 600//30
f  601//30 598//30 596//30
f  605//30 602//30 604//30
f  605//30 603//30 602//30
f  610//30 606//30 609//30
f  610//30 607//30 606//30
f  615//30 611//30 614//30
f  615//30 613//30 611//30
f  619//30 616//30 618//30
f  619//30 617//30 616//30
f  620//5 523//5 521//5
f  621//6 525//6 523//6
f  622//6 621//6 523//6
f  620//5 622//5 523//5
f  620//7 521//7 524//7
f  524//33 525//33 621//33
f  623//2 621//2 622//2
f  623//33 524//33 621//33
f  620//2 623//2 622//2
f  620//7 524//7 623//7
f  624//5 527//5 526//5
f  625//6 529//6 527//6
f  624//6 625//6 527//6
f  626//5 624//5 526//5
f  626//7 526//7 528//7
f  627//33 529//33 625//33
f  627//33 528//33 529//33
f  627//2 625//2 624//2
f  626//2 627//2 624//2
f  626//7 528//7 627//7
f  628//5 533//5 532//5
f  629//6 535//6 533//6
f  628//6 629//6 533//6
f  630//5 628//5 532//5
f  630//7 532//7 534//7
f  631//33 535//33 629//33
f  631//33 534//33 535//33
f  631//2 629//2 628//2
f  630//2 631//2 628//2
f  630//7 534//7 631//7
f  632//5 537//5 536//5
f  633//6 539//6 537//6
f  634//6 633//6 537//6
f  632//5 634//5 537//5
f  632//7 536//7 538//7
f  538//33 539//33 633//33
f  635//2 633//2 634//2
f  635//33 538//33 633//33
f  632//2 635//2 634//2
f  632//7 538//7 635//7
f  636//5 541//5 540//5
f  637//6 543//6 541//6
f  636//6 637//6 541//6
f  638//5 636//5 540//5
f  638//7 540//7 542//7
f  639//33 543//33 637//33
f  639//33 542//33 543//33
f  639//2 637//2 636//2
f  638//2 639//2 636//2
f  638//7 542//7 639//7
f  640//7 494//7 493//7
f  492//33 640//33 493//33
f  492//33 493//33 487//33
f  491//2 494//2 640//2
f  492//2 491//2 640//2

