# File produced by Open Asset Import Library (http://www.assimp.sf.net)
# (assimp v4.1.3154142419)

newmtl $Material_0
Kd 0.7490000128746033 0.7490000128746033 0.7490000128746033
Ka 0.7490000128746033 0.7490000128746033 0.7490000128746033
Ks 0 0 0
Ke 0 0 0
illum 1

